<svg xmlns="http://www.w3.org/2000/svg" width="58.391" height="124.495" viewBox="0 0 58.391 124.495">
  <path id="Path_154" data-name="Path 154" d="M189.567,42.28c.689.463.162,1.392-.57,1.783a3.016,3.016,0,0,1-1.708.1,6.6,6.6,0,0,0-3.811.807,1.564,1.564,0,0,1,.975,2.119l-4.191,1.18a2.029,2.029,0,0,1,.746,1.577c-1.255.668-2.66-.888-2.725-2.31a1.169,1.169,0,0,0-1.361-.083,1.851,1.851,0,0,1-.345,3.225,4.578,4.578,0,0,1-4.736,5.134,13.712,13.712,0,0,0-1.564,6.462c.009.8-.271,1.939-1.056,1.785a17.627,17.627,0,0,0,7.178,7.848,2.786,2.786,0,0,0-.284,3.155,8.15,8.15,0,0,0,2.275,2.472q2.695,2.221,5.389,4.437c4.211,3.467,8.559,7.1,10.843,12.058a18.251,18.251,0,0,1,.727,1.837c1.106,3.3,1.313,7.023,3.416,9.8q.526,4.049,1.054,8.1a5.055,5.055,0,0,1-.255,3.118,1.082,1.082,0,0,0-1.787.022,2.331,2.331,0,0,1,.962,1.128c.133.486-.22,1.121-.718,1.06a8.262,8.262,0,0,1,.15,5.644c-.559-.342-1.213.329-1.4.958s-.29,1.4-.879,1.687c-.469.229-1.065.035-1.525.282-.541.29-.626,1.015-.953,1.534-.535.851-1.649,1.062-2.609,1.361s-2.02,1.01-1.916,2.009a84.031,84.031,0,0,0-8.635,2.474,2.465,2.465,0,0,0-1.014.543c-.454.473-.465,1.206-.72,1.809s-1.117,1.08-1.527.569l.454,1.379a1.718,1.718,0,0,1-2.467-.338,3.209,3.209,0,0,1,2.068,3.137c-.892.853-2.389.19-3.259-.683s-1.693-2.012-2.921-2.129a6.018,6.018,0,0,1,2.232,4.922q-2.069.773-4.137,1.543a3.244,3.244,0,0,0-1.291.726,4.666,4.666,0,0,0-.689,1.3,5.4,5.4,0,0,1-6.29,2.808,6.463,6.463,0,0,0,1.05-2.114l-1.182-.039q1.047-4.431,2.092-8.86c.242-1.026-.2-2.675-1.156-2.232.094.7-1.115.785-1.531.212s-.4-1.355-.759-1.963a1.7,1.7,0,0,1-.373-.79c0-.469.519-.737.96-.894q2.008-.717,4.014-1.438a1.094,1.094,0,1,1,1.027-1.789c.541-.188,1.082-.375,1.621-.563,1.719-.594,4.28-.774,4.708.993-.319-.654.792-1.008,1.508-.89a2.014,2.014,0,0,0-.188-1.51,1.3,1.3,0,0,1-1.8-.454,3.742,3.742,0,0,1-.423-2.02,1.035,1.035,0,1,1,.724-1.357,2.4,2.4,0,0,1,4.093-.838,2.9,2.9,0,0,1,.02-2.522l1.11.061a14.635,14.635,0,0,0,5.194-1.937,4.985,4.985,0,0,0,2.3-4.747,5.76,5.76,0,0,1-.384-2.491c.22-.814,1.054-1.37,1.215-2.2.3-1.556-1.876-3.137-.979-4.444-1.272.157-1.743-1.615-1.715-2.9a2.709,2.709,0,0,1,.345-1.54.935.935,0,0,1,1.379-.214,9.484,9.484,0,0,0-.777-5.033,1.215,1.215,0,0,0,1.532-1.457q-1.418-1.18-2.838-2.358a2.569,2.569,0,0,1-.82-.942c-.57-1.387,1.311-2.443,2.771-2.773l-3.674-2.129a2.266,2.266,0,0,0-1.165-.414c-.454.013-.866.3-1.32.329-.953.065-1.615-.973-1.767-1.915a9.383,9.383,0,0,0-.465-2.81c-1.019-2.016-4.525-2.129-4.92-4.353l.26.345q-1.313-2.049-2.622-4.1a10.65,10.65,0,0,0-2.616-3.12,16.259,16.259,0,0,1-1.813-1.217,1.826,1.826,0,0,1-.606-1.957,14.5,14.5,0,0,0-5.264-2.433,1.8,1.8,0,0,1-1.054-.5c-.236-.3-.253-.738-.523-1.01-.364-.364-1.006-.251-1.418-.558a.851.851,0,0,1-.281-.96c.092-.078.185-.159.277-.236a1.952,1.952,0,0,1,1.693-1.878c.079-.5-.288-.943-.458-1.42s.074-1.2.569-1.1a26.322,26.322,0,0,0,4.379,1.089l.443-.89c.247.05.495.1.744.144a11.366,11.366,0,0,1,.574-2.26c-.593.155-1.394.22-1.652-.338a2.343,2.343,0,0,1-.026-1.015,1.627,1.627,0,0,0-2.062-1.483,2.3,2.3,0,0,1,1.7-2.539c-.862.14-1.44-.868-2.238-1.222a2.182,2.182,0,0,0-2.334.609,6.167,6.167,0,0,0-1.23,2.228,10.4,10.4,0,0,0-4.152-1.878,4.39,4.39,0,0,1-1.429-.426,3.659,3.659,0,0,1-1.141-1.355l-1.375-2.311c-.063-.109-.115-.273-.007-.336s.087.22.026.111a5.722,5.722,0,0,0,.846-4.361c-.731.87-2.059,1.7-2.88.921-.707-.672-.275-1.894-.67-2.784-.445-1-1.831-1.363-2.164-2.406-.46-1.449,1.416-2.553,1.824-4.017a2.7,2.7,0,0,1,.33-.988c.545-.694,1.645-.164,2.326.4l2.819,2.319q1.21-1.412,2.311-2.912a2.493,2.493,0,0,0,1.627,1.782l.227-1.567a4.061,4.061,0,0,1,2.655,2.419,3.613,3.613,0,0,0,1.82-3.179,2.359,2.359,0,0,1,1.652.27q.047.673.1,1.346l2.945-1.137c.349-.135.761-.36.746-.733-.02-.554-.975-1.03-.576-1.416a9.876,9.876,0,0,0,4.37-2.889,2.435,2.435,0,0,1,.6,1.183l1.5,0q.091,1.147.181,2.295a1.346,1.346,0,0,1,1.44,1.433,5.249,5.249,0,0,1,2.635-1.054.744.744,0,0,1,.637.146c.153.166.035.524-.185.476.55.349,1.211-.188,1.728-.585s1.507-.517,1.614.129c.155.09-.164.3-.234.137s.155-.33.33-.29a.908.908,0,0,1,.417.332,2.932,2.932,0,0,0,2.313.96c-.3,1.71-1.021,3.824-2.755,3.951a11.679,11.679,0,0,0,1.486,2.775,1.3,1.3,0,0,1,1.715.449,3.41,3.41,0,0,1,.46,1.887c.9-.583,1.861.786,2.923.9,1.008.1,1.9-.979,2.889-.75a1.573,1.573,0,0,0,1.121,1.46A4.607,4.607,0,0,0,189.567,42.28Z" transform="translate(-141.548 -26.345)" fill="rgba(197,148,104,0.5)"/>
</svg>
