<svg xmlns="http://www.w3.org/2000/svg" width="19.843" height="11.205" viewBox="0 0 19.843 11.205">
  <g id="Group_142" data-name="Group 142" transform="translate(-163.187 -1059.685)">
    <rect id="Rectangle_3" data-name="Rectangle 3" width="19.843" height="11.205" transform="translate(163.187 1059.685)" fill="#e50019"/>
    <path id="Path_32" data-name="Path 32" d="M193.295,1066.224l1.365,2.766,3.053.443-2.209,2.154.521,3.041-2.731-1.436-2.731,1.436.521-3.041-2.209-2.154,3.053-.443Z" transform="translate(-20.186 -5.138)" fill="#fe0"/>
  </g>
</svg>
